<svg xmlns="http://www.w3.org/2000/svg" viewBox="0 0 512 512">
    <defs>
        <style>.cls-1{fill:#dd0c57;}</style>
    </defs>
    <title>Ресурс 1</title>
    <g id="Слой_2" data-name="Слой 2"><g id="Capa_1" data-name="Capa 1">
        <path class="cls-1" d="M456.35,334.4c-.49-.83-1-1.62-1.54-2.32a33.26,33.26,0,0,0-46.41-7.66L313,392.53H213.33a8.53,8.53,0,1,1,0-17.07H268.8a29.9,29.9,0,0,0,29.87-29.87c0-.09,0-.88,0-1a30,30,0,0,0-30.53-28.9h-111a42.82,42.82,0,0,0-27,9.91L88.41,360.37a8.56,8.56,0,0,0-3.07,6.56v102.4a8.53,8.53,0,0,0,8.53,8.53H305.59a59.87,59.87,0,0,0,38-13.73l103.45-85.48A33.54,33.54,0,0,0,456.35,334.4Zm-19.67,30.74L332.74,451a42.82,42.82,0,0,1-27.16,9.81H102.4V370.93l38.66-32.19a25.67,25.67,0,0,1,16.12-5.95H268.39A13,13,0,0,1,281.6,345.6a12.82,12.82,0,0,1-12.8,12.8H213.33a25.6,25.6,0,0,0,0,51.2h102.4a8.65,8.65,0,0,0,5-1.59l97.64-69.73A16.19,16.19,0,0,1,441,342.07c.26.35.49.71.71,1.08C446,350.38,444,359.88,436.68,365.13Z"/><path class="cls-1" d="M93.61,349.87H0v17.07H85.08v128H0V512H93.61a8.53,8.53,0,0,0,8.53-8.53V358.4A8.53,8.53,0,0,0,93.61,349.87Z"/>
        <path class="cls-1" d="M42.67,426.67a25.6,25.6,0,1,0,25.6,25.6A25.63,25.63,0,0,0,42.67,426.67Zm0,34.13a8.53,8.53,0,1,1,8.53-8.53A8.54,8.54,0,0,1,42.67,460.8Z"/>
        <path class="cls-1" d="M503.47,264.53H8.53A8.53,8.53,0,0,0,0,273.07,59.8,59.8,0,0,0,59.73,332.8H452.27A59.81,59.81,0,0,0,512,273.07,8.52,8.52,0,0,0,503.47,264.53Zm-51.2,51.2H59.73A42.73,42.73,0,0,1,17.93,281.6H494.07A42.73,42.73,0,0,1,452.27,315.73Z"/>
        <path class="cls-1" d="M256,42.67c-122.33,0-221.87,99.53-221.87,221.87v8.53a8.53,8.53,0,0,0,8.53,8.53H469.33a8.52,8.52,0,0,0,8.53-8.53v-8.53C477.87,142.2,378.34,42.67,256,42.67ZM51.2,264.53c0-112.92,91.88-204.8,204.8-204.8s204.8,91.88,204.8,204.8Z"/>
        <path class="cls-1" d="M115.64,140a190.75,190.75,0,0,0-16.43,21.34l14.22,9.43a174.38,174.38,0,0,1,15-19.44Z"/>
        <path class="cls-1" d="M256,76.8a187.06,187.06,0,0,0-128.47,51l11.69,12.43A170,170,0,0,1,256,93.87Z"/>
        <rect class="cls-1" x="230.4" width="51.2" height="17.07"/>
        <rect class="cls-1" x="247.47" y="8.53" width="17.07" height="42.67"/>
    </g>
    </g>
</svg>